{
  "up": {
    "action": "addColumn",
    "tableName": "buku",
    "columnName": "tahun_terbit",
    "type": "string",
    "options": [
      255
    ],
    "allowNull": true
  },
  "down": {
    "action": "removeColumn",
    "tableName": "buku",
    "columnName": "tahun_terbit"
  }
}