{
  "up": {
    "action": "changeColumn",
    "tableName": "meminjam",
    "columnName": "tanggal_pinjam",
    "type": "date",
    "allowNull": false
  },
  "down": {
    "action": "changeColumn",
    "tableName": "meminjam",
    "columnName": "tanggal_pinjam",
    "type": "date",
    "options": null,
    "allowNull": true,
    "defaultValue": null
  }
}