{
  "up": {
    "action": "addColumn",
    "tableName": "poin",
    "columnName": "user_id",
    "type": "uuid",
    "allowNull": false
  },
  "down": {
    "action": "removeColumn",
    "tableName": "poin",
    "columnName": "user_id"
  }
}