{
  "up": {
    "action": "addForeignKey",
    "tableName": "buku",
    "columnName": "penerbit_id",
    "referencesTableName": "penerbit",
    "referencesColumnName": "id",
    "onUpdate": "no action",
    "onDelete": "no action"
  },
  "down": {
    "action": "removeForeignKey",
    "tableName": "buku",
    "columnName": "penerbit_id",
    "referencesTableName": "penerbit",
    "referencesColumnName": "id"
  }
}