{
  "up": {
    "action": "addColumn",
    "tableName": "meminjam",
    "columnName": "jumlah",
    "type": "integer",
    "allowNull": false
  },
  "down": {
    "action": "removeColumn",
    "tableName": "meminjam",
    "columnName": "jumlah"
  }
}